…
`mutate` in combinazione con le funzioni `cut_`.

Le funzioni `cut_` restituiscono sempre dei `factor`, cioé variabili
ordinali. Questo è utile per la visualizzazione, per esempio per
ordinare automaticamente le legende dei grafici.

``` r
Test_ingresso <- readxl::read_excel("base_dati_CICCHITELLI_excel/Test d'ingresso.xls")

Test_ingresso %>% mutate(
  Classe_voto_test = `Test d'ingresso` %>% as.numeric %>% cut_interval(3)
)
```

    ## # A tibble: 118 x 3
    ##    `Test d'ingresso` `Valutazione fine primo anno` Classe_voto_test
    ##    <chr>                                     <dbl> <fct>           
    ##  1 21                                         3.90 [15,21.7]       
    ##  2 28                                         3.78 (21.7,28.3]     
    ##  3 22                                         2.54 (21.7,28.3]     
    ##  4 21                                         3.03 [15,21.7]       
    ##  5 31                                         3.86 (28.3,35]       
    ##  6 32                                         2.96 (28.3,35]       
    ##  7 27                                         3.96 (21.7,28.3]     
    ##  8 26                                         3.18 (21.7,28.3]     
    ##  9 24                                         3.31 (21.7,28.3]     
    ## 10 30                                         3.54 (28.3,35]       
    ## # ... with 108 more rows

``` r
Test_ingresso %>% mutate(
  Classe_voto_test = `Test d'ingresso` %>% as.numeric %>% cut_interval(3,labels = c("Basso","Medio","Alto"))
) -> Test_ingresso

Test_ingresso
```

    ## # A tibble: 118 x 3
    ##    `Test d'ingresso` `Valutazione fine primo anno` Classe_voto_test
    ##    <chr>                                     <dbl> <fct>           
    ##  1 21                                         3.90 Basso           
    ##  2 28                                         3.78 Medio           
    ##  3 22                                         2.54 Medio           
    ##  4 21                                         3.03 Basso           
    ##  5 31                                         3.86 Alto            
    ##  6 32                                         2.96 Alto            
    ##  7 27                                         3.96 Medio           
    ##  8 26                                         3.18 Medio           
    ##  9 24                                         3.31 Medio           
    ## 10 30                                         3.54 Alto            
    ## # ... with 108 more rows

## Statistiche sommario e gruppi

``` r
Test_ingresso %>% group_by(`Test d'ingresso`) %>%
  summarise(Media_voto_finale = mean(`Valutazione fine primo anno`),
            n = n())
```

    ## # A tibble: 23 x 3
    ##    `Test d'ingresso` Media_voto_finale     n
    ##    <chr>                         <dbl> <int>
    ##  1 15                             2        1
    ##  2 16                             2.53     3
    ##  3 18                             2.53     7
    ##  4 19                             3.17     3
    ##  5 20                             2.74     9
    ##  6 21                             3.04     7
    ##  7 22                             2.85     4
    ##  8 23                             3.21     5
    ##  9 24                             3.09    12
    ## 10 25                             3.08    10
    ## # ... with 13 more rows
…
Il miglior modo di capire l’anti-join è introdurre un pacchetto avanzato
per l’analisi testuale, `tidytext`. Tidytext prende un testo e lo
trasforma in una `tibble`. Possiamo scaricare testi storici grazie al
pacchetto `gutenbergr`.

``` r
pacman::p_load("tidytext")
pacman::p_load("gutenbergr")

gutenberg_metadata %>%
  group_by(language) %>%
  count()
```

    ## # A tibble: 103 x 2
    ## # Groups:   language [103]
    ##    language     n
    ##    <chr>    <int>
    ##  1 af           4
    ##  2 ale/en       1
    ##  3 ang/de       1
    ##  4 ang/en       3
    ##  5 ar           1
    ##  6 arp          2
    ##  7 bg           6
    ##  8 bgi/es       1
    ##  9 br           1
    ## 10 ca          28
    ## # ... with 93 more rows
…
    ## # A tibble: 1 x 2
    ##   gutenberg_id text                                                             
    ##          <int> <chr>                                                            
    ## 1        30984 "muore, peggio per lui. Ci\xf2 che saranno codeste riforme possi~

``` r
Sicilia %>%
  tidytext::unnest_tokens(word,text) -> Sicilia_t

Sicilia_t
```

    ## # A tibble: 129,331 x 2
    ##    gutenberg_id word       
    ##           <int> <chr>      
    ##  1        30984 d.r        
    ##  2        30984 napoleone  
    ##  3        30984 colajanni  
    ##  4        30984 _deputato  
    ##  5        30984 al         
    ##  6        30984 parlamento_
    ##  7        30984 gli        
    ##  8        30984 avvenimenti
    ##  9        30984 di         
    ## 10        30984 sicilia    
    ## # ... with 129,321 more rows

``` r
Sicilia_t %>%
  group_by(word) %>%
  count() %>% arrange(-n)
```

    ## # A tibble: 18,664 x 2
    ## # Groups:   word [18,664]
    ##    word      n
    ##    <chr> <int>
    ##  1 e      5000
    ##  2 di     4543
    ##  3 che    3500
    ##  4 la     2534
    ##  5 il     2364
    ##  6 in     2030
    ##  7 si     1719
    ##  8 non    1699
    ##  9 a      1565
    ## 10 del    1522
    ## # ... with 18,654 more rows

``` r
Sicilia_t %>%
  anti_join(get_stopwords("it")) %>%
  group_by(word) %>%
  count() %>% arrange(-n)
```

    ## # A tibble: 18,465 x 2
    ## # Groups:   word [18,465]
    ##    word         n
    ##    <chr>    <int>
    ##  1 pi         664
    ##  2 sicilia    437
    ##  3 governo    313
    ##  4 perch      307
    ##  5 stato      303
    ##  6 generale   227
    ##  7 quando     199
    ##  8 de         185
    ##  9 altri      184
    ## 10 quali      180
    ## # ... with 18,455 more rows
…
``` r
# Introduciamo un pacchetto abbastanza scherzoso che genera a caso delle identità fittizie
pacman::p_load(tidyverse)
pacman::p_load(randomNames)

randomNames(100, gender = c(rep(0,44),
                           rep(1,56)),
            return.complete.data = T) %>%
  as_tibble() -> Elenco

Elenco
```

    ## # A tibble: 100 x 4
    ##    gender ethnicity first_name last_name       
    ##     <dbl>     <int> <chr>      <chr>           
    ##  1      0         1 Deven      Oster           
    ##  2      0         4 Fernando   Hernandez Torres
    ##  3      0         4 Isaiah     Lazo            
    ##  4      0         1 Hunter     White           
    ##  5      0         2 Nitesh     Mcnew           
    ##  6      0         6 Thaaqib    el-Kamali       
    ##  7      0         3 Devante    Carter          
    ##  8      0         1 Kyle       Mullins         
    ##  9      0         6 Faatih     el-Salik        
    ## 10      0         6 Aadam      el-Kazi         
    ## # ... with 90 more rows
…
``` r
Elenco %>% slice_sample(prop = .5)
```

    ## # A tibble: 50 x 4
    ##    gender ethnicity first_name last_name
    ##     <dbl>     <int> <chr>      <chr>    
    ##  1      0         6 Thaaqib    el-Kamali
    ##  2      1         4 Janae      Vigil    
    ##  3      1         4 Brooke     Trejo    
    ##  4      0         6 Nu'maan    el-Rayes 
    ##  5      1         6 Sajiyya    el-Abu   
    ##  6      0         2 Mitchell   Tran     
    ##  7      1         3 Morgan     Brooks   
    ##  8      0         2 James      Baird    
    ##  9      1         6 Shaahida   el-Emami 
    ## 10      0         6 Ismad      al-Moradi
    ## # ... with 40 more rows
…
