…
## Studio sulle “Tabelle ben formate”

Questa è una generica tabella:

``` r
# set.seed serve a rendere i valori casuali ma riproducibili...
# vedrete come nella nota sotto
set.seed(1810)
tibble(Dado_1 = sample(1:6, 30, replace = T),
       Dado_2 = sample(1:6, 30, replace = T))
```

    ## # A tibble: 30 x 2
    ##    Dado_1 Dado_2
    ##     <int>  <int>
    ##  1      2      4
    ##  2      4      6
    ##  3      6      4
    ##  4      3      3
    ##  5      5      5
    ##  6      6      6
    ##  7      2      4
    ##  8      3      5
    ##  9      5      4
    ## 10      2      1
    ## # ... with 20 more rows
…
